Wrangling
…
.pull-right45[

```r
# Lese Basel Datensatz ein
basel <- read_csv("1_Data/basel.csv")

# Benutze expliziten Delimiter
basel <- read_delim("1_Data/basel.csv",
                   delim = ",")
basel
```

```
## # A tibble: 10,000 x 20
##      id geschlecht alter groesse
##   <dbl> <chr>      <dbl>   <dbl>
## 1     1 f             87    165 
## 2     2 m             54    175.
## 3     3 f             34    147.
## 4     4 m             31    166.
## 5     5 m             24    180.
## # … with 9,995 more rows, and 16
## #   more variables
```
…
]

---

# Semi-structured data <font style="font-size: 16px">mit <a href="https://github.com/r-lib/xml2"><mono>xml2</mono></a> und <a href="https://github.com/hadley/rvest"><mono>rvest</mono></a></font> 

```r
# Load table from Wikipedia (with xml2 and rvest)
read_html("https://en.wikipedia.org/wiki/R_(programming_language)") %>%
  html_node(xpath = '//*[@id="mw-content-text"]/div/table[2]') %>%
  html_table() %>% as_tibble()
```

```
## # A tibble: 17 x 3
##    Release Date        Description                                                        
##    <chr>   <chr>       <chr>                                                              
##  1 0.16    ""          "This is the last alpha version developed primarily by Ihaka and G…
##  2 0.49    "1997-04-2… "This is the oldest source release which is currently available on…
##  3 0.60    "1997-12-0… "R becomes an official part of the GNU Project. The code is hosted…
##  4 0.65.1  "1999-10-0… "First versions of update.packages and install.packages functions …
##  5 1.0     "2000-02-2… "Considered by its developers stable enough for production use.[50…
##  6 1.4     "2001-12-1… "S4 methods are introduced and the first version for Mac OS X is m…
##  7 1.8     "2003-10-0… "Introduced a flexible condition handling mechanism for signalling…
##  8 2.0     "2004-10-0… "Introduced lazy loading, which enables fast loading of data with …
##  9 2.1     "2005-04-1… "Support for UTF-8 encoding, and the beginnings of internationaliz…
## 10 2.11    "2010-04-2… "Support for Windows 64 bit systems."                              
## # … with 7 more rows
```
…
