Wrangling
…
Use the left_join() function to combine the trial_act and trial_act_demo datasets, set the by argument to the name of the key column that is common in both data sets. Assign the result to trial_act.

trial_act <- trial_act %>%
  left_join(XX, by = "XX")

Print your new trial_act dataframe. Do you now see the demographic data?

H - Reshaping with pivot_longer() and pivot_wider()

Remember the CD4_wide dataframe you created before? Currently it is in the wide format, where each row is a patient, where key data (different CD4 T cell counts) are in different columns like this:

# Data is in a 'wide' format
CD4_wide

# A tibble: 2,139 x 5
   pidnum  arms  cd40 cd420 cd496
    <dbl> <dbl> <dbl> <dbl> <dbl>
 1  10056     2   422   477   660
 2  10059     3   162   218    NA
 3  10089     3   326   274   122
 4  10093     3   287   394    NA
 5  10124     0   504   353   660
 6  10140     1   235   339   264
 7  10165     0   244   225   106
 8  10190     0   401   366   453
 9  10198     3   214   107     8
10  10229     0   221   132    NA
# … with 2,129 more rows

Our goal is to convert this data to a ‘long’ format, where each row represents a single CD4 T cell count for a specific patient, like this:

# This is the same data in 'long' format
CD4_long

# A tibble: 6,417 x 4
   pidnum  arms name  value
    <dbl> <dbl> <chr> <dbl>
 1  10056     2 cd40    422
 2  10056     2 cd420   477
 3  10056     2 cd496   660
 4  10059     3 cd40    162
 5  10059     3 cd420   218
 6  10059     3 cd496    NA
 7  10089     3 cd40    326
 8  10089     3 cd420   274
 9  10089     3 cd496   122
10  10093     3 cd40    287
# … with 6,407 more rows
…
